%YAML 1.1
%TAG !u! tag:unity3d.com,2011:
--- !u!1045 &1
EditorBuildSettings:
  m_ObjectHideFlags: 0
  serializedVersion: 2
  m_Scenes:
  - enabled: 1
    path: Assets/Scenes/First.unity
    guid: 2cda990e2423bbf4892e6590ba056729
  - enabled: 1
    path: Assets/Scenes/Second.unity
    guid: 66127b5c027560b45a0450da7215386c
  - enabled: 1
    path: Assets/Scenes/Third.unity
    guid: 61a845ad746f5274a92189e70f4c8af7
  m_configObjects: {}
